wave.vcd
$date
   Wed Dec 10 15:41:18 2025
$end

$version
  2025.1.0
  $dumpfile ("wave.vcd") 
$end

$timescale
  1ps
$end

$scope module tb_top $end
$var reg 1 ! clk $end
$var reg 1 " rst $end
$scope module intf $end
$var wire 1 # clk $end
$var wire 1 $ rst $end
$var reg 1 % s00_axis_aclk $end
$var reg 1 & s00_axis_aresetn $end
$var reg 1 ' s00_axis_tlast $end
$var reg 1 ( s00_axis_tvalid $end
$var reg 32 ) s00_axis_tdata [31:0] $end
$var reg 4 * s00_axis_tstrb [3:0] $end
$var reg 1 + s00_axis_tready $end
$var reg 1 , m00_axis_aclk $end
$var reg 1 - m00_axis_aresetn $end
$var reg 1 . m00_axis_tready $end
$var reg 1 / m00_axis_tvalid $end
$var reg 1 0 m00_axis_tlast $end
$var reg 32 1 m00_axis_tdata [31:0] $end
$var reg 4 2 m00_axis_tstrb [3:0] $end
$upscope $end
$scope module dut $end
$var wire 1 3 s00_axis_aclk $end
$var wire 1 4 s00_axis_aresetn $end
$var wire 1 5 s00_axis_tlast $end
$var wire 1 6 s00_axis_tvalid $end
$var wire 32 7 s00_axis_tdata [31:0] $end
$var wire 4 8 s00_axis_tstrb [3:0] $end
$var reg 1 9 s00_axis_tready $end
$var wire 1 : m00_axis_aclk $end
$var wire 1 ; m00_axis_aresetn $end
$var wire 1 < m00_axis_tready $end
$var reg 1 = m00_axis_tvalid $end
$var reg 1 > m00_axis_tlast $end
$var reg 32 ? m00_axis_tdata [31:0] $end
$var reg 4 @ m00_axis_tstrb [3:0] $end
$var reg 1 A q2 $end
$var reg 1 B q3 $end
$var reg 272 C cordic_angles [271:0] $end
$var reg 1 D m00_axis_tvalid_reg $end
$var reg 1 E m00_axis_tlast_reg $end
$var reg 32 F new_x [31:0] $end
$var reg 32 G new_y [31:0] $end
$var reg 16 H z [15:0] $end
$var reg 5 I counter [4:0] $end
$upscope $end
$upscope $end
$enddefinitions $end

#0
$dumpvars
0!
0"
0#
0$
0%
0&
0'
0(
b0 )
b0 *
x+
0,
0-
1.
x/
x0
bx 1
b1111 2
03
04
05
06
b0 7
b0 8
x9
0:
0;
1<
x=
x>
bx ?
b1111 @
xA
xB
bx C
xD
xE
bx F
bx G
bx H
bx I
$end

#5000
1!
1#
1%
1+
1,
0/
00
b0 1
13
19
1:
0=
0>
b0 ?
0A
0B
b100000000000000010000000000000011000000000000010100000000000010100000000000010100000000000010100100000000010100010000000010100011000000010100011000000010100010110000010100010001000010011111101100010010111001000010000000000000 C
0D
0E
b0 F
b0 G
b0 H
b0 I

#10000
0!
0#
0%
0,
03
0:

#15000
1!
1#
1%
1,
13
1:

#20000
0!
0#
0%
0,
03
0:

#25000
1!
1#
1%
1,
13
1:

#30000
0!
0#
0%
0,
03
0:

#35000
1!
1#
1%
1,
13
1:

#40000
0!
0#
0%
0,
03
0:

#45000
1!
1#
1%
1,
13
1:

#50000
0!
0#
0%
0,
03
0:

#55000
1!
1#
1%
1,
13
1:

#60000
0!
0#
0%
0,
03
0:

#65000
1!
1#
1%
1,
13
1:

#70000
0!
0#
0%
0,
03
0:

#75000
1!
1#
1%
1,
13
1:

#80000
0!
0#
0%
0,
03
0:

#85000
1!
1#
1%
1,
13
1:

#90000
0!
0#
0%
0,
03
0:

#95000
1!
1#
1%
1,
13
1:

#100000
0!
1"
0#
1$
0%
1&
0,
1-
03
14
0:
1;

#105000
1!
1#
1%
1,
13
1:

#110000
0!
0#
0%
0,
03
0:

#115000
1!
1#
1%
1'
b111001100110011010000100101011 )
b1111 *
1,
13
15
b111001100110011010000100101011 7
b1111 8
1:

#120000
0!
0#
0%
0,
03
0:

#125000
1!
1#
1%
1(
1,
10
13
16
1:
1>
1E

#130000
0!
0#
0%
0,
03
0:

#135000
1!
1#
1%
0+
1,
b101111011010101 1
13
09
1:
b101111011010101 ?
1A
b101111011010101 F
b11100110011001 G
b1 I

#140000
0!
0#
0%
0,
03
0:

#145000
1!
1#
1%
0(
1,
b11100000000000001001100001101110 1
13
06
1:
b11100000000000001001100001101110 ?
b1001100001101110 F
b11111111111111111101101011000100 G
b1110000000000000 H
b10 I

#150000
0!
0#
0%
0,
03
0:

#155000
1!
1#
1%
1,
b11110010111001001010101100001100 1
13
1:
b11110010111001001010101100001100 ?
b1010101100001100 F
b10011011111011 G
b1111001011100100 H
b11 I

#160000
0!
0#
0%
0,
03
0:

#165000
1!
1#
1%
1,
b11101000111010011011010011001010 1
13
1:
b11101000111010011011010011001010 ?
b1011010011001010 F
b11111111111111111111110000111000 G
b1110100011101001 H
b100 I

#170000
0!
0#
0%
0,
03
0:

#175000
1!
1#
1%
1,
b11101101111110101011010101000011 1
13
1:
b11101101111110101011010101000011 ?
b1011010101000011 F
b1001011010001 G
b1110110111111010 H
b101 I

#180000
0!
0#
0%
0,
03
0:

#185000
1!
1#
1%
1,
b11101011011011111011011001110000 1
13
1:
b11101011011011111011011001110000 ?
b1011011001110000 F
b11101111101 G
b1110101101101111 H
b110 I

#190000
0!
0#
0%
0,
03
0:

#195000
1!
1#
1%
1,
b11101010001010011011011010101011 1
13
1:
b11101010001010011011011010101011 ?
b1011011010101011 F
b111001010 G
b1110101000101001 H
b111 I

#200000
0!
0#
0%
0,
03
0:

#205000
1!
1#
1%
1,
b11101001100001101011011010110010 1
13
1:
b11101001100001101011011010110010 ?
b1011011010110010 F
b11111111111111111111111011110000 G
b1110100110000110 H
b1000 I

#210000
0!
0#
0%
0,
03
0:

#215000
1!
1#
1%
1,
b11101001110101111011011010110101 1
13
1:
b11101001110101111011011010110101 ?
b1011011010110101 F
b1011101 G
b1110100111010111 H
b1001 I

#220000
0!
0#
0%
0,
03
0:

#225000
1!
1#
1%
1,
b11101001101011101011011010110101 1
13
1:
b11101001101011101011011010110101 ?
b11111111111111111111111110100111 G
b1110100110101110 H
b1010 I

#230000
0!
0#
0%
0,
03
0:

#235000
1!
1#
1%
1,
b11101001110000101011011010110110 1
13
1:
b11101001110000101011011010110110 ?
b1011011010110110 F
b10 G
b1110100111000010 H
b1011 I

#240000
0!
0#
0%
0,
03
0:

#245000
1!
1#
1%
1,
b11101001101110001011011010110110 1
13
1:
b11101001101110001011011010110110 ?
b11111111111111111111111111010101 G
b1110100110111000 H
b1100 I

#250000
0!
0#
0%
0,
03
0:

#255000
1!
1#
1%
1,
b11101001101111011011011010110111 1
13
1:
b11101001101111011011011010110111 ?
b1011011010110111 F
b11111111111111111111111111101011 G
b1110100110111101 H
b1101 I

#260000
0!
0#
0%
0,
03
0:

#265000
1!
1#
1%
1,
b11101001110000001011011010111000 1
13
1:
b11101001110000001011011010111000 ?
b1011011010111000 F
b11111111111111111111111111110110 G
b1110100111000000 H
b1110 I

#270000
0!
0#
0%
0,
03
0:

#275000
1!
1#
1%
1,
b11101001110000011011011010111001 1
13
1:
b11101001110000011011011010111001 ?
b1011011010111001 F
b11111111111111111111111111111011 G
b1110100111000001 H
b1111 I

#280000
0!
0#
0%
0,
03
0:

#285000
1!
1#
1%
1,
b11101001110000101011011010111010 1
13
1:
b11101001110000101011011010111010 ?
b1011011010111010 F
b11111111111111111111111111111101 G
b1110100111000010 H
b10000 I

#290000
0!
0#
0%
0,
03
0:

#295000
1!
1#
1%
1,
b11101001110000101011011010111011 1
13
1:
b11101001110000101011011010111011 ?
b1011011010111011 F
b11111111111111111111111111111110 G
b10001 I

#300000
0!
0#
0%
0,
03
0:

#305000
1!
1#
1%
1,
1/
b1101001110000100110111011110110 1
13
1:
1=
b1101001110000100110111011110110 ?
1D
b110111011110110 F
b110100111000010 H
b10010 I

#310000
0!
0#
0%
0,
03
0:

#315000
1!
1#
1%
1+
1,
0/
13
19
1:
0=
0D
b0 I

#320000
0!
0#
0%
0,
03
0:

#325000
1!
1#
1%
1,
13
1:

#330000
0!
0#
0%
0,
03
0:

#335000
1!
1#
1%
b1101101110100110001111011010100 )
1,
13
b1101101110100110001111011010100 7
1:

#340000
0!
0#
0%
0,
03
0:

#345000
1!
1#
1%
1(
1,
13
16
1:

#350000
0!
0#
0%
0,
03
0:

#355000
1!
1#
1%
0+
1,
b1111011010100 1
13
09
1:
b1111011010100 ?
0A
b1111011010100 F
b110110111010011 G
b0 H
b1 I

#360000
0!
0#
0%
0,
03
0:

#365000
1!
1#
1%
0(
1,
b11100000000000001000110010100111 1
13
06
1:
b11100000000000001000110010100111 ?
b1000110010100111 F
b100111011111111 G
b1110000000000000 H
b10 I

#370000
0!
0#
0%
0,
03
0:

#375000
1!
1#
1%
1,
b11001101000111001011010000100110 1
13
1:
b11001101000111001011010000100110 ?
b1011010000100110 F
b100010101100 G
b1100110100011100 H
b11 I

#380000
0!
0#
0%
0,
03
0:

#385000
1!
1#
1%
1,
b11000011001000011011011001010001 1
13
1:
b11000011001000011011011001010001 ?
b1011011001010001 F
b11111111111111111101101110100011 G
b1100001100100001 H
b100 I

#390000
0!
0#
0%
0,
03
0:

#395000
1!
1#
1%
1,
b11001000001100101011101011011101 1
13
1:
b11001000001100101011101011011101 ?
b1011101011011101 F
b11111111111111111111001001101101 G
b1100100000110010 H
b101 I

#400000
0!
0#
0%
0,
03
0:

#405000
1!
1#
1%
1,
b11001010101111011011101110110111 1
13
1:
b11001010101111011011101110110111 ?
b1011101110110111 F
b11111111111111111111111000011010 G
b1100101010111101 H
b110 I

#410000
0!
0#
0%
0,
03
0:

#415000
1!
1#
1%
1,
b11001100000000111011101111000111 1
13
1:
b11001100000000111011101111000111 ?
b1011101111000111 F
b1111110111 G
b1100110000000011 H
b111 I

#420000
0!
0#
0%
0,
03
0:

#425000
1!
1#
1%
1,
b11001011011000001011101111010110 1
13
1:
b11001011011000001011101111010110 ?
b1011101111010110 F
b100001000 G
b1100101101100000 H
b1000 I

#430000
0!
0#
0%
0,
03
0:

#435000
1!
1#
1%
1,
b11001011000011111011101111011000 1
13
1:
b11001011000011111011101111011000 ?
b1011101111011000 F
b11111111111111111111111110010001 G
b1100101100001111 H
b1001 I

#440000
0!
0#
0%
0,
03
0:

#445000
1!
1#
1%
1,
b11001011001110001011101111011001 1
13
1:
b11001011001110001011101111011001 ?
b1011101111011001 F
b1001100 G
b1100101100111000 H
b1010 I

#450000
0!
0#
0%
0,
03
0:

#455000
1!
1#
1%
1,
b11001011001001001011101111011001 1
13
1:
b11001011001001001011101111011001 ?
b11111111111111111111111111101111 G
b1100101100100100 H
b1011 I

#460000
0!
0#
0%
0,
03
0:

#465000
1!
1#
1%
1,
b11001011001011101011101111011010 1
13
1:
b11001011001011101011101111011010 ?
b1011101111011010 F
b11101 G
b1100101100101110 H
b1100 I

#470000
0!
0#
0%
0,
03
0:

#475000
1!
1#
1%
1,
b11001011001010011011101111011010 1
13
1:
b11001011001010011011101111011010 ?
b110 G
b1100101100101001 H
b1101 I

#480000
0!
0#
0%
0,
03
0:

#485000
1!
1#
1%
1,
b11001011001001101011101111011010 1
13
1:
b11001011001001101011101111011010 ?
b11111111111111111111111111111011 G
b1100101100100110 H
b1110 I

#490000
0!
0#
0%
0,
03
0:

#495000
1!
1#
1%
1,
b11001011001001111011101111011011 1
13
1:
b11001011001001111011101111011011 ?
b1011101111011011 F
b0 G
b1100101100100111 H
b1111 I

#500000
0!
0#
0%
0,
03
0:

#505000
1!
1#
1%
1,
b11001011001001101011101111011011 1
13
1:
b11001011001001101011101111011011 ?
b11111111111111111111111111111110 G
b1100101100100110 H
b10000 I

#510000
0!
0#
0%
0,
03
0:

#515000
1!
1#
1%
1,
b11001011001001101011101111011100 1
13
1:
b11001011001001101011101111011100 ?
b1011101111011100 F
b11111111111111111111111111111111 G
b10001 I

#520000
0!
0#
0%
0,
03
0:

#525000
1!
1#
1%
1,
1/
b11001011001001100111001000010011 1
13
1:
1=
b11001011001001100111001000010011 ?
1D
b111001000010011 F
b10010 I

#530000
0!
0#
0%
0,
03
0:

#535000
1!
1#
1%
1+
1,
0/
13
19
1:
0=
0D
b0 I

#540000
0!
0#
0%
0,
03
0:

#545000
1!
1#
1%
1,
13
1:

#550000
0!
0#
0%
0,
03
0:

#555000
1!
1#
1%
b111111111010100010001100011000 )
1,
13
b111111111010100010001100011000 7
1:

#560000
0!
0#
0%
0,
03
0:

#565000
1!
1#
1%
1(
1,
13
16
1:

#570000
0!
0#
0%
0,
03
0:

#575000
1!
1#
1%
0+
1,
b10001100011000 1
13
09
1:
b10001100011000 ?
b10001100011000 F
b11111111101010 G
b0 H
b1 I

#580000
0!
0#
0%
0,
03
0:

#585000
1!
1#
1%
0(
1,
b11100000000000000110001100000010 1
13
06
1:
b11100000000000000110001100000010 ?
b110001100000010 F
b1110011010010 G
b1110000000000000 H
b10 I

#590000
0!
0#
0%
0,
03
0:

#595000
1!
1#
1%
1,
b11001101000111000111000101101011 1
13
1:
b11001101000111000111000101101011 ?
b111000101101011 F
b11111111111111111110101101010001 G
b1100110100011100 H
b11 I

#600000
0!
0#
0%
0,
03
0:

#605000
1!
1#
1%
1,
b11010111000101110111011010010111 1
13
1:
b11010111000101110111011010010111 ?
b111011010010111 F
b11110101011 G
b1101011100010111 H
b100 I

#610000
0!
0#
0%
0,
03
0:

#615000
1!
1#
1%
1,
b11010010000001100111011110001100 1
13
1:
b11010010000001100111011110001100 ?
b111011110001100 F
b11111111111111111111100011011001 G
b1101001000000110 H
b101 I

#620000
0!
0#
0%
0,
03
0:

#625000
1!
1#
1%
1,
b11010100100100010111011111111111 1
13
1:
b11010100100100010111011111111111 ?
b111011111111111 F
b1010001 G
b1101010010010001 H
b110 I

#630000
0!
0#
0%
0,
03
0:

#635000
1!
1#
1%
1,
b11010011010010110111100000000001 1
13
1:
b11010011010010110111100000000001 ?
b111100000000001 F
b11111111111111111111110010010010 G
b1101001101001011 H
b111 I

#640000
0!
0#
0%
0,
03
0:

#645000
1!
1#
1%
1,
b11010011111011100111100000001111 1
13
1:
b11010011111011100111100000001111 ?
b111100000001111 F
b11111111111111111111111001110010 G
b1101001111101110 H
b1000 I

#650000
0!
0#
0%
0,
03
0:

#655000
1!
1#
1%
1,
b11010100001111110111100000010011 1
13
1:
b11010100001111110111100000010011 ?
b111100000010011 F
b11111111111111111111111101100010 G
b1101010000111111 H
b1001 I

#660000
0!
0#
0%
0,
03
0:

#665000
1!
1#
1%
1,
b11010100011010000111100000010100 1
13
1:
b11010100011010000111100000010100 ?
b111100000010100 F
b11111111111111111111111111011010 G
b1101010001101000 H
b1010 I

#670000
0!
0#
0%
0,
03
0:

#675000
1!
1#
1%
1,
b11010100011111000111100000010101 1
13
1:
b11010100011111000111100000010101 ?
b111100000010101 F
b10110 G
b1101010001111100 H
b1011 I

#680000
0!
0#
0%
0,
03
0:

#685000
1!
1#
1%
1,
b11010100011100100111100000010101 1
13
1:
b11010100011100100111100000010101 ?
b11111111111111111111111111111000 G
b1101010001110010 H
b1100 I

#690000
0!
0#
0%
0,
03
0:

#695000
1!
1#
1%
1,
b11010100011101110111100000010110 1
13
1:
b11010100011101110111100000010110 ?
b111100000010110 F
b111 G
b1101010001110111 H
b1101 I

#700000
0!
0#
0%
0,
03
0:

#705000
1!
1#
1%
1,
b11010100011101000111100000010110 1
13
1:
b11010100011101000111100000010110 ?
b0 G
b1101010001110100 H
b1110 I

#710000
0!
0#
0%
0,
03
0:

#715000
1!
1#
1%
1,
b11010100011100110111100000010110 1
13
1:
b11010100011100110111100000010110 ?
b11111111111111111111111111111101 G
b1101010001110011 H
b1111 I

#720000
0!
0#
0%
0,
03
0:

#725000
1!
1#
1%
1,
b11010100011101000111100000010111 1
13
1:
b11010100011101000111100000010111 ?
b111100000010111 F
b11111111111111111111111111111110 G
b1101010001110100 H
b10000 I

#730000
0!
0#
0%
0,
03
0:

#735000
1!
1#
1%
1,
b11010100011101000111100000011000 1
13
1:
b11010100011101000111100000011000 ?
b111100000011000 F
b10001 I

#740000
0!
0#
0%
0,
03
0:

#745000
1!
1#
1%
1,
1/
b11010100011101000100100011101100 1
13
1:
1=
b11010100011101000100100011101100 ?
1D
b100100011101100 F
b10010 I

#750000
0!
0#
0%
0,
03
0:

#755000
1!
1#
1%
1+
1,
0/
13
19
1:
0=
0D
b0 I

#760000
0!
0#
0%
0,
03
0:

#765000
1!
1#
1%
1,
13
1:

#770000
0!
0#
0%
0,
03
0:

#775000
1!
1#
1%
b101110111100011110000111111100 )
1,
13
b101110111100011110000111111100 7
1:

#780000
0!
0#
0%
0,
03
0:

#785000
1!
1#
1%
1(
1,
13
16
1:

#790000
0!
0#
0%
0,
03
0:

#795000
1!
1#
1%
0+
1,
b1111000000100 1
13
09
1:
b1111000000100 ?
1A
b1111000000100 F
b10111011110001 G
b0 H
b1 I

#800000
0!
0#
0%
0,
03
0:

#805000
1!
1#
1%
0(
1,
b11100000000000000100110011110101 1
13
06
1:
b11100000000000000100110011110101 ?
b100110011110101 F
b1000011101101 G
b1110000000000000 H
b10 I

#810000
0!
0#
0%
0,
03
0:

#815000
1!
1#
1%
1,
b11001101000111000101010101101011 1
13
1:
b11001101000111000101010101101011 ?
b101010101101011 F
b11111111111111111110101001110011 G
b1100110100011100 H
b11 I

#820000
0!
0#
0%
0,
03
0:

#825000
1!
1#
1%
1,
b11010111000101110101101011001111 1
13
1:
b11010111000101110101101011001111 ?
b101101011001111 F
b11111111111111111111111111001101 G
b1101011100010111 H
b100 I

#830000
0!
0#
0%
0,
03
0:

#835000
1!
1#
1%
1,
b11011100001010000101101011010110 1
13
1:
b11011100001010000101101011010110 ?
b101101011010110 F
b101100100110 G
b1101110000101000 H
b101 I

#840000
0!
0#
0%
0,
03
0:

#845000
1!
1#
1%
1,
b11011001100111010101101110001000 1
13
1:
b11011001100111010101101110001000 ?
b101101110001000 F
b10101111001 G
b1101100110011101 H
b110 I

#850000
0!
0#
0%
0,
03
0:

#855000
1!
1#
1%
1,
b11011000010101110101101110110011 1
13
1:
b11011000010101110101101110110011 ?
b101101110110011 F
b1010011101 G
b1101100001010111 H
b111 I

#860000
0!
0#
0%
0,
03
0:

#865000
1!
1#
1%
1,
b11010111101101000101101110111101 1
13
1:
b11010111101101000101101110111101 ?
b101101110111101 F
b100101111 G
b1101011110110100 H
b1000 I

#870000
0!
0#
0%
0,
03
0:

#875000
1!
1#
1%
1,
b11010111011000110101101110111111 1
13
1:
b11010111011000110101101110111111 ?
b101101110111111 F
b1111000 G
b1101011101100011 H
b1001 I

#880000
0!
0#
0%
0,
03
0:

#885000
1!
1#
1%
1,
b11010111001110100101101110111111 1
13
1:
b11010111001110100101101110111111 ?
b11101 G
b1101011100111010 H
b1010 I

#890000
0!
0#
0%
0,
03
0:

#895000
1!
1#
1%
1,
b11010111001001100101101110111111 1
13
1:
b11010111001001100101101110111111 ?
b11111111111111111111111111110000 G
b1101011100100110 H
b1011 I

#900000
0!
0#
0%
0,
03
0:

#905000
1!
1#
1%
1,
b11010111001100000101101111000000 1
13
1:
b11010111001100000101101111000000 ?
b101101111000000 F
b110 G
b1101011100110000 H
b1100 I

#910000
0!
0#
0%
0,
03
0:

#915000
1!
1#
1%
1,
b11010111001010110101101111000000 1
13
1:
b11010111001010110101101111000000 ?
b11111111111111111111111111111011 G
b1101011100101011 H
b1101 I

#920000
0!
0#
0%
0,
03
0:

#925000
1!
1#
1%
1,
b11010111001011100101101111000001 1
13
1:
b11010111001011100101101111000001 ?
b101101111000001 F
b0 G
b1101011100101110 H
b1110 I

#930000
0!
0#
0%
0,
03
0:

#935000
1!
1#
1%
1,
b11010111001011010101101111000001 1
13
1:
b11010111001011010101101111000001 ?
b11111111111111111111111111111110 G
b1101011100101101 H
b1111 I

#940000
0!
0#
0%
0,
03
0:

#945000
1!
1#
1%
1,
b11010111001011100101101111000010 1
13
1:
b11010111001011100101101111000010 ?
b101101111000010 F
b11111111111111111111111111111111 G
b1101011100101110 H
b10000 I

#950000
0!
0#
0%
0,
03
0:

#955000
1!
1#
1%
1,
b11010111001011100101101111000011 1
13
1:
b11010111001011100101101111000011 ?
b101101111000011 F
b10001 I

#960000
0!
0#
0%
0,
03
0:

#965000
1!
1#
1%
1,
1/
b1010111001011100011011110111000 1
13
1:
1=
b1010111001011100011011110111000 ?
1D
b11011110111000 F
b101011100101110 H
b10010 I

#970000
0!
0#
0%
0,
03
0:

#975000
1!
1#
1%
1+
1,
0/
13
19
1:
0=
0D
b0 I

#980000
0!
0#
0%
0,
03
0:

#985000
1!
1#
1%
1,
13
1:

#990000
0!
0#
0%
0,
03
0:

#995000
1!
1#
1%
b1111010101001100011011111010100 )
1,
13
b1111010101001100011011111010100 7
1:

#1000000
0!
0#
0%
0,
03
0:

#1005000
1!
1#
1%
1(
1,
13
16
1:

#1010000
0!
0#
0%
0,
03
0:

#1015000
1!
1#
1%
0+
1,
b11011111010100 1
13
09
1:
b11011111010100 ?
0A
b11011111010100 F
b111101010100110 G
b0 H
b1 I

#1020000
0!
0#
0%
0,
03
0:

#1025000
1!
1#
1%
0(
1,
b11100000000000001011001001111010 1
13
06
1:
b11100000000000001011001001111010 ?
b1011001001111010 F
b100001011010010 G
b1110000000000000 H
b10 I

#1030000
0!
0#
0%
0,
03
0:

#1035000
1!
1#
1%
1,
b11001101000111001101001111100011 1
13
1:
b11001101000111001101001111100011 ?
b1101001111100011 F
b11111111111111111110100110010101 G
b1100110100011100 H
b11 I

#1040000
0!
0#
0%
0,
03
0:

#1045000
1!
1#
1%
1,
b11010111000101111101100101111110 1
13
1:
b11010111000101111101100101111110 ?
b1101100101111110 F
b1111010001101 G
b1101011100010111 H
b100 I

#1050000
0!
0#
0%
0,
03
0:

#1055000
1!
1#
1%
1,
b11010010000001101101110101001111 1
13
1:
b11010010000001101101110101001111 ?
b1101110101001111 F
b1101011110 G
b1101001000000110 H
b101 I

#1060000
0!
0#
0%
0,
03
0:

#1065000
1!
1#
1%
1,
b11001111011110111101110110000100 1
13
1:
b11001111011110111101110110000100 ?
b1101110110000100 F
b11111111111111111111010110001010 G
b1100111101111011 H
b110 I

#1070000
0!
0#
0%
0,
03
0:

#1075000
1!
1#
1%
1,
b11010000110000011101110111011000 1
13
1:
b11010000110000011101110111011000 ?
b1101110111011000 F
b11111111111111111111110001110110 G
b1101000011000001 H
b111 I

#1080000
0!
0#
0%
0,
03
0:

#1085000
1!
1#
1%
1,
b11010001011001001101110111100111 1
13
1:
b11010001011001001101110111100111 ?
b1101110111100111 F
b11111111111111111111111111101101 G
b1101000101100100 H
b1000 I

#1090000
0!
0#
0%
0,
03
0:

#1095000
1!
1#
1%
1,
b11010001101101011101110111101000 1
13
1:
b11010001101101011101110111101000 ?
b1101110111101000 F
b110101000 G
b1101000110110101 H
b1001 I

#1100000
0!
0#
0%
0,
03
0:

#1105000
1!
1#
1%
1,
b11010001100011001101110111101001 1
13
1:
b11010001100011001101110111101001 ?
b1101110111101001 F
b11001011 G
b1101000110001100 H
b1010 I

#1110000
0!
0#
0%
0,
03
0:

#1115000
1!
1#
1%
1,
b11010001011110001101110111101001 1
13
1:
b11010001011110001101110111101001 ?
b1011101 G
b1101000101111000 H
b1011 I

#1120000
0!
0#
0%
0,
03
0:

#1125000
1!
1#
1%
1,
b11010001011011101101110111101001 1
13
1:
b11010001011011101101110111101001 ?
b100110 G
b1101000101101110 H
b1100 I

#1130000
0!
0#
0%
0,
03
0:

#1135000
1!
1#
1%
1,
b11010001011010011101110111101001 1
13
1:
b11010001011010011101110111101001 ?
b1011 G
b1101000101101001 H
b1101 I

#1140000
0!
0#
0%
0,
03
0:

#1145000
1!
1#
1%
1,
b11010001011001101101110111101001 1
13
1:
b11010001011001101101110111101001 ?
b11111111111111111111111111111110 G
b1101000101100110 H
b1110 I

#1150000
0!
0#
0%
0,
03
0:

#1155000
1!
1#
1%
1,
b11010001011001111101110111101010 1
13
1:
b11010001011001111101110111101010 ?
b1101110111101010 F
b100 G
b1101000101100111 H
b1111 I

#1160000
0!
0#
0%
0,
03
0:

#1165000
1!
1#
1%
1,
b11010001011001101101110111101010 1
13
1:
b11010001011001101101110111101010 ?
b1 G
b1101000101100110 H
b10000 I

#1170000
0!
0#
0%
0,
03
0:

#1175000
1!
1#
1%
1,
13
1:
b0 G
b10001 I

#1180000
0!
0#
0%
0,
03
0:

#1185000
1!
1#
1%
1,
1/
b11010001011001101000011011000001 1
13
1:
1=
b11010001011001101000011011000001 ?
1D
b11111111111111111000011011000001 F
b10010 I

#1190000
0!
0#
0%
0,
03
0:

#1195000
1!
1#
1%
1+
1,
0/
13
19
1:
0=
0D
b0 I

#1200000
0!
0#
0%
0,
03
0:

#1205000
1!
1#
1%
1,
13
1:

#1210000
0!
0#
0%
0,
03
0:

#1215000
1!
1#
1%
b111100101001010011000001101011 )
1,
13
b111100101001010011000001101011 7
1:

#1220000
0!
0#
0%
0,
03
0:

#1225000
1!
1#
1%
1(
1,
13
16
1:

#1230000
0!
0#
0%
0,
03
0:

#1235000
1!
1#
1%
0+
1,
b11000001101011 1
13
09
1:
b11000001101011 ?
b11000001101011 F
b11110010100101 G
b0 H
b1 I

#1240000
0!
0#
0%
0,
03
0:

#1245000
1!
1#
1%
0(
1,
b11100000000000000110110100010000 1
13
06
1:
b11100000000000000110110100010000 ?
b110110100010000 F
b110000111010 G
b1110000000000000 H
b10 I

#1250000
0!
0#
0%
0,
03
0:

#1255000
1!
1#
1%
1,
b11001101000111000111001100101101 1
13
1:
b11001101000111000111001100101101 ?
b111001100101101 F
b11111111111111111101010110110010 G
b1100110100011100 H
b11 I

#1260000
0!
0#
0%
0,
03
0:

#1265000
1!
1#
1%
1,
b11010111000101110111110111000001 1
13
1:
b11010111000101110111110111000001 ?
b111110111000001 F
b11111111111111111111001001111101 G
b1101011100010111 H
b100 I

#1270000
0!
0#
0%
0,
03
0:

#1275000
1!
1#
1%
1,
b11011100001010000111111101110010 1
13
1:
b11011100001010000111111101110010 ?
b111111101110010 F
b1000110101 G
b1101110000101000 H
b101 I

#1280000
0!
0#
0%
0,
03
0:

#1285000
1!
1#
1%
1,
b11011001100111010111111110010101 1
13
1:
b11011001100111010111111110010101 ?
b111111110010101 F
b11111111111111111111101000111110 G
b1101100110011101 H
b110 I

#1290000
0!
0#
0%
0,
03
0:

#1295000
1!
1#
1%
1,
b11011010111000110111111111000100 1
13
1:
b11011010111000110111111111000100 ?
b111111111000100 F
b11111111111111111111111000111010 G
b1101101011100011 H
b111 I

#1300000
0!
0#
0%
0,
03
0:

#1305000
1!
1#
1%
1,
b11011011100001100111111111001100 1
13
1:
b11011011100001100111111111001100 ?
b111111111001100 F
b111001 G
b1101101110000110 H
b1000 I

#1310000
0!
0#
0%
0,
03
0:

#1315000
1!
1#
1%
1,
b11011011001101010111111111001100 1
13
1:
b11011011001101010111111111001100 ?
b11111111111111111111111100111010 G
b1101101100110101 H
b1001 I

#1320000
0!
0#
0%
0,
03
0:

#1325000
1!
1#
1%
1,
b11011011010111100111111111001101 1
13
1:
b11011011010111100111111111001101 ?
b111111111001101 F
b11111111111111111111111110111001 G
b1101101101011110 H
b1010 I

#1330000
0!
0#
0%
0,
03
0:

#1335000
1!
1#
1%
1,
b11011011011100100111111111001110 1
13
1:
b11011011011100100111111111001110 ?
b111111111001110 F
b11111111111111111111111111111000 G
b1101101101110010 H
b1011 I

#1340000
0!
0#
0%
0,
03
0:

#1345000
1!
1#
1%
1,
b11011011011111000111111111001111 1
13
1:
b11011011011111000111111111001111 ?
b111111111001111 F
b10111 G
b1101101101111100 H
b1100 I

#1350000
0!
0#
0%
0,
03
0:

#1355000
1!
1#
1%
1,
b11011011011101110111111111001111 1
13
1:
b11011011011101110111111111001111 ?
b1000 G
b1101101101110111 H
b1101 I

#1360000
0!
0#
0%
0,
03
0:

#1365000
1!
1#
1%
1,
b11011011011101000111111111001111 1
13
1:
b11011011011101000111111111001111 ?
b1 G
b1101101101110100 H
b1110 I

#1370000
0!
0#
0%
0,
03
0:

#1375000
1!
1#
1%
1,
b11011011011100110111111111001111 1
13
1:
b11011011011100110111111111001111 ?
b11111111111111111111111111111110 G
b1101101101110011 H
b1111 I

#1380000
0!
0#
0%
0,
03
0:

#1385000
1!
1#
1%
1,
b11011011011101000111111111010000 1
13
1:
b11011011011101000111111111010000 ?
b111111111010000 F
b11111111111111111111111111111111 G
b1101101101110100 H
b10000 I

#1390000
0!
0#
0%
0,
03
0:

#1395000
1!
1#
1%
1,
b11011011011101000111111111010001 1
13
1:
b11011011011101000111111111010001 ?
b111111111010001 F
b10001 I

#1400000
0!
0#
0%
0,
03
0:

#1405000
1!
1#
1%
1,
1/
b11011011011101000100110110011101 1
13
1:
1=
b11011011011101000100110110011101 ?
1D
b100110110011101 F
b10010 I

#1410000
0!
0#
0%
0,
03
0:

#1415000
1!
1#
1%
1+
1,
0/
13
19
1:
0=
0D
b0 I

#1420000
0!
0#
0%
0,
03
0:

#1425000
1!
1#
1%
1,
13
1:

#1430000
0!
0#
0%
0,
03
0:

#1435000
1!
1#
1%
b10010100100110110011110011100001 )
1,
13
b10010100100110110011110011100001 7
1:

#1440000
0!
0#
0%
0,
03
0:

#1445000
1!
1#
1%
1(
1,
13
16
1:

#1450000
0!
0#
0%
0,
03
0:

#1455000
1!
1#
1%
0+
1,
b11110011100001 1
13
09
1:
b11110011100001 ?
b11110011100001 F
b11111111111111111001010010011011 G
b0 H
b1 I

#1460000
0!
0#
0%
0,
03
0:

#1465000
1!
1#
1%
0(
1,
b100000000000001010100001000110 1
13
06
1:
b100000000000001010100001000110 ?
b1010100001000110 F
b11111111111111111101000101111100 G
b10000000000000 H
b10 I

#1470000
0!
0#
0%
0,
03
0:

#1475000
1!
1#
1%
1,
b110010111001001011111110001000 1
13
1:
b110010111001001011111110001000 ?
b1011111110001000 F
b10010110011111 G
b11001011100100 H
b11 I

#1480000
0!
0#
0%
0,
03
0:

